/eos/atlas/atlascerngroupdisk/phys-higgs/HSG1/MxAOD/h024/mc16e/JetSys/mc16e.PowhegPy8_ttH125.MxAODJetSys.e6503_s3126_r10724_p3665.h024.root/mc16e.PowhegPy8_ttH125.MxAODJetSys.e6503_s3126_r10724_p3665.h024.003.root
/eos/atlas/atlascerngroupdisk/phys-higgs/HSG1/MxAOD/h024/mc16e/JetSys/mc16e.PowhegPy8_ttH125.MxAODJetSys.e6503_s3126_r10724_p3665.h024.root/mc16e.PowhegPy8_ttH125.MxAODJetSys.e6503_s3126_r10724_p3665.h024.004.root
/eos/atlas/atlascerngroupdisk/phys-higgs/HSG1/MxAOD/h024/mc16e/JetSys/mc16e.PowhegPy8_ttH125.MxAODJetSys.e6503_s3126_r10724_p3665.h024.root/mc16e.PowhegPy8_ttH125.MxAODJetSys.e6503_s3126_r10724_p3665.h024.005.root
/eos/atlas/atlascerngroupdisk/phys-higgs/HSG1/MxAOD/h024/mc16e/JetSys/mc16e.PowhegPy8_ttH125.MxAODJetSys.e6503_s3126_r10724_p3665.h024.root/mc16e.PowhegPy8_ttH125.MxAODJetSys.e6503_s3126_r10724_p3665.h024.006.root
/eos/atlas/atlascerngroupdisk/phys-higgs/HSG1/MxAOD/h024/mc16e/JetSys/mc16e.PowhegPy8_ttH125.MxAODJetSys.e6503_s3126_r10724_p3665.h024.root/mc16e.PowhegPy8_ttH125.MxAODJetSys.e6503_s3126_r10724_p3665.h024.007.root
/eos/atlas/atlascerngroupdisk/phys-higgs/HSG1/MxAOD/h024/mc16e/JetSys/mc16e.PowhegPy8_ttH125.MxAODJetSys.e6503_s3126_r10724_p3665.h024.root/mc16e.PowhegPy8_ttH125.MxAODJetSys.e6503_s3126_r10724_p3665.h024.008.root
/eos/atlas/atlascerngroupdisk/phys-higgs/HSG1/MxAOD/h024/mc16e/JetSys/mc16e.PowhegPy8_ttH125.MxAODJetSys.e6503_s3126_r10724_p3665.h024.root/mc16e.PowhegPy8_ttH125.MxAODJetSys.e6503_s3126_r10724_p3665.h024.009.root
/eos/atlas/atlascerngroupdisk/phys-higgs/HSG1/MxAOD/h024/mc16e/JetSys/mc16e.PowhegPy8_ttH125.MxAODJetSys.e6503_s3126_r10724_p3665.h024.root/mc16e.PowhegPy8_ttH125.MxAODJetSys.e6503_s3126_r10724_p3665.h024.010.root
/eos/atlas/atlascerngroupdisk/phys-higgs/HSG1/MxAOD/h024/mc16e/JetSys/mc16e.PowhegPy8_ttH125.MxAODJetSys.e6503_s3126_r10724_p3665.h024.root/mc16e.PowhegPy8_ttH125.MxAODJetSys.e6503_s3126_r10724_p3665.h024.011.root
/eos/atlas/atlascerngroupdisk/phys-higgs/HSG1/MxAOD/h024/mc16e/JetSys/mc16e.PowhegPy8_ttH125.MxAODJetSys.e6503_s3126_r10724_p3665.h024.root/mc16e.PowhegPy8_ttH125.MxAODJetSys.e6503_s3126_r10724_p3665.h024.012.root
/eos/atlas/atlascerngroupdisk/phys-higgs/HSG1/MxAOD/h024/mc16e/JetSys/mc16e.PowhegPy8_ttH125.MxAODJetSys.e6503_s3126_r10724_p3665.h024.root/mc16e.PowhegPy8_ttH125.MxAODJetSys.e6503_s3126_r10724_p3665.h024.013.root
/eos/atlas/atlascerngroupdisk/phys-higgs/HSG1/MxAOD/h024/mc16e/JetSys/mc16e.PowhegPy8_ttH125.MxAODJetSys.e6503_s3126_r10724_p3665.h024.root/mc16e.PowhegPy8_ttH125.MxAODJetSys.e6503_s3126_r10724_p3665.h024.014.root
/eos/atlas/atlascerngroupdisk/phys-higgs/HSG1/MxAOD/h024/mc16e/JetSys/mc16e.PowhegPy8_ttH125.MxAODJetSys.e6503_s3126_r10724_p3665.h024.root/mc16e.PowhegPy8_ttH125.MxAODJetSys.e6503_s3126_r10724_p3665.h024.015.root
/eos/atlas/atlascerngroupdisk/phys-higgs/HSG1/MxAOD/h024/mc16e/JetSys/mc16e.PowhegPy8_ttH125.MxAODJetSys.e6503_s3126_r10724_p3665.h024.root/mc16e.PowhegPy8_ttH125.MxAODJetSys.e6503_s3126_r10724_p3665.h024.016.root
/eos/atlas/atlascerngroupdisk/phys-higgs/HSG1/MxAOD/h024/mc16e/JetSys/mc16e.PowhegPy8_ttH125.MxAODJetSys.e6503_s3126_r10724_p3665.h024.root/mc16e.PowhegPy8_ttH125.MxAODJetSys.e6503_s3126_r10724_p3665.h024.017.root
/eos/atlas/atlascerngroupdisk/phys-higgs/HSG1/MxAOD/h024/mc16e/JetSys/mc16e.PowhegPy8_ttH125.MxAODJetSys.e6503_s3126_r10724_p3665.h024.root/mc16e.PowhegPy8_ttH125.MxAODJetSys.e6503_s3126_r10724_p3665.h024.018.root
/eos/atlas/atlascerngroupdisk/phys-higgs/HSG1/MxAOD/h024/mc16e/JetSys/mc16e.PowhegPy8_ttH125.MxAODJetSys.e6503_s3126_r10724_p3665.h024.root/mc16e.PowhegPy8_ttH125.MxAODJetSys.e6503_s3126_r10724_p3665.h024.019.root
/eos/atlas/atlascerngroupdisk/phys-higgs/HSG1/MxAOD/h024/mc16e/JetSys/mc16e.PowhegPy8_ttH125.MxAODJetSys.e6503_s3126_r10724_p3665.h024.root/mc16e.PowhegPy8_ttH125.MxAODJetSys.e6503_s3126_r10724_p3665.h024.020.root
/eos/atlas/atlascerngroupdisk/phys-higgs/HSG1/MxAOD/h024/mc16e/JetSys/mc16e.PowhegPy8_ttH125.MxAODJetSys.e6503_s3126_r10724_p3665.h024.root/mc16e.PowhegPy8_ttH125.MxAODJetSys.e6503_s3126_r10724_p3665.h024.021.root
/eos/atlas/atlascerngroupdisk/phys-higgs/HSG1/MxAOD/h024/mc16e/JetSys/mc16e.PowhegPy8_ttH125.MxAODJetSys.e6503_s3126_r10724_p3665.h024.root/mc16e.PowhegPy8_ttH125.MxAODJetSys.e6503_s3126_r10724_p3665.h024.022.root
/eos/atlas/atlascerngroupdisk/phys-higgs/HSG1/MxAOD/h024/mc16e/JetSys/mc16e.PowhegPy8_ttH125.MxAODJetSys.e6503_s3126_r10724_p3665.h024.root/mc16e.PowhegPy8_ttH125.MxAODJetSys.e6503_s3126_r10724_p3665.h024.023.root
/eos/atlas/atlascerngroupdisk/phys-higgs/HSG1/MxAOD/h024/mc16e/JetSys/mc16e.PowhegPy8_ttH125.MxAODJetSys.e6503_s3126_r10724_p3665.h024.root/mc16e.PowhegPy8_ttH125.MxAODJetSys.e6503_s3126_r10724_p3665.h024.024.root
/eos/atlas/atlascerngroupdisk/phys-higgs/HSG1/MxAOD/h024/mc16e/JetSys/mc16e.PowhegPy8_ttH125.MxAODJetSys.e6503_s3126_r10724_p3665.h024.root/mc16e.PowhegPy8_ttH125.MxAODJetSys.e6503_s3126_r10724_p3665.h024.025.root
/eos/atlas/atlascerngroupdisk/phys-higgs/HSG1/MxAOD/h024/mc16e/JetSys/mc16e.PowhegPy8_ttH125.MxAODJetSys.e6503_s3126_r10724_p3665.h024.root/mc16e.PowhegPy8_ttH125.MxAODJetSys.e6503_s3126_r10724_p3665.h024.026.root
/eos/atlas/atlascerngroupdisk/phys-higgs/HSG1/MxAOD/h024/mc16e/JetSys/mc16e.PowhegPy8_ttH125.MxAODJetSys.e6503_s3126_r10724_p3665.h024.root/mc16e.PowhegPy8_ttH125.MxAODJetSys.e6503_s3126_r10724_p3665.h024.027.root
/eos/atlas/atlascerngroupdisk/phys-higgs/HSG1/MxAOD/h024/mc16e/JetSys/mc16e.PowhegPy8_ttH125.MxAODJetSys.e6503_s3126_r10724_p3665.h024.root/mc16e.PowhegPy8_ttH125.MxAODJetSys.e6503_s3126_r10724_p3665.h024.028.root
/eos/atlas/atlascerngroupdisk/phys-higgs/HSG1/MxAOD/h024/mc16e/JetSys/mc16e.PowhegPy8_ttH125.MxAODJetSys.e6503_s3126_r10724_p3665.h024.root/mc16e.PowhegPy8_ttH125.MxAODJetSys.e6503_s3126_r10724_p3665.h024.029.root
/eos/atlas/atlascerngroupdisk/phys-higgs/HSG1/MxAOD/h024/mc16e/JetSys/mc16e.PowhegPy8_ttH125.MxAODJetSys.e6503_s3126_r10724_p3665.h024.root/mc16e.PowhegPy8_ttH125.MxAODJetSys.e6503_s3126_r10724_p3665.h024.030.root
/eos/atlas/atlascerngroupdisk/phys-higgs/HSG1/MxAOD/h024/mc16e/JetSys/mc16e.PowhegPy8_ttH125.MxAODJetSys.e6503_s3126_r10724_p3665.h024.root/mc16e.PowhegPy8_ttH125.MxAODJetSys.e6503_s3126_r10724_p3665.h024.031.root
/eos/atlas/atlascerngroupdisk/phys-higgs/HSG1/MxAOD/h024/mc16e/JetSys/mc16e.PowhegPy8_ttH125.MxAODJetSys.e6503_s3126_r10724_p3665.h024.root/mc16e.PowhegPy8_ttH125.MxAODJetSys.e6503_s3126_r10724_p3665.h024.032.root
/eos/atlas/atlascerngroupdisk/phys-higgs/HSG1/MxAOD/h024/mc16e/JetSys/mc16e.PowhegPy8_ttH125.MxAODJetSys.e6503_s3126_r10724_p3665.h024.root/mc16e.PowhegPy8_ttH125.MxAODJetSys.e6503_s3126_r10724_p3665.h024.033.root
/eos/atlas/atlascerngroupdisk/phys-higgs/HSG1/MxAOD/h024/mc16e/JetSys/mc16e.PowhegPy8_ttH125.MxAODJetSys.e6503_s3126_r10724_p3665.h024.root/mc16e.PowhegPy8_ttH125.MxAODJetSys.e6503_s3126_r10724_p3665.h024.034.root
/eos/atlas/atlascerngroupdisk/phys-higgs/HSG1/MxAOD/h024/mc16e/JetSys/mc16e.PowhegPy8_ttH125.MxAODJetSys.e6503_s3126_r10724_p3665.h024.root/mc16e.PowhegPy8_ttH125.MxAODJetSys.e6503_s3126_r10724_p3665.h024.035.root
/eos/atlas/atlascerngroupdisk/phys-higgs/HSG1/MxAOD/h024/mc16e/JetSys/mc16e.PowhegPy8_ttH125.MxAODJetSys.e6503_s3126_r10724_p3665.h024.root/mc16e.PowhegPy8_ttH125.MxAODJetSys.e6503_s3126_r10724_p3665.h024.036.root
/eos/atlas/atlascerngroupdisk/phys-higgs/HSG1/MxAOD/h024/mc16e/JetSys/mc16e.PowhegPy8_ttH125.MxAODJetSys.e6503_s3126_r10724_p3665.h024.root/mc16e.PowhegPy8_ttH125.MxAODJetSys.e6503_s3126_r10724_p3665.h024.037.root
/eos/atlas/atlascerngroupdisk/phys-higgs/HSG1/MxAOD/h024/mc16e/JetSys/mc16e.PowhegPy8_ttH125.MxAODJetSys.e6503_s3126_r10724_p3665.h024.root/mc16e.PowhegPy8_ttH125.MxAODJetSys.e6503_s3126_r10724_p3665.h024.038.root
/eos/atlas/atlascerngroupdisk/phys-higgs/HSG1/MxAOD/h024/mc16e/JetSys/mc16e.PowhegPy8_ttH125.MxAODJetSys.e6503_s3126_r10724_p3665.h024.root/mc16e.PowhegPy8_ttH125.MxAODJetSys.e6503_s3126_r10724_p3665.h024.039.root
/eos/atlas/atlascerngroupdisk/phys-higgs/HSG1/MxAOD/h024/mc16e/JetSys/mc16e.PowhegPy8_ttH125.MxAODJetSys.e6503_s3126_r10724_p3665.h024.root/mc16e.PowhegPy8_ttH125.MxAODJetSys.e6503_s3126_r10724_p3665.h024.040.root
/eos/atlas/atlascerngroupdisk/phys-higgs/HSG1/MxAOD/h024/mc16e/JetSys/mc16e.PowhegPy8_ttH125.MxAODJetSys.e6503_s3126_r10724_p3665.h024.root/mc16e.PowhegPy8_ttH125.MxAODJetSys.e6503_s3126_r10724_p3665.h024.041.root
/eos/atlas/atlascerngroupdisk/phys-higgs/HSG1/MxAOD/h024/mc16e/JetSys/mc16e.PowhegPy8_ttH125.MxAODJetSys.e6503_s3126_r10724_p3665.h024.root/mc16e.PowhegPy8_ttH125.MxAODJetSys.e6503_s3126_r10724_p3665.h024.042.root
